%YAML 1.1
%TAG !u! tag:unity3d.com,2011:
--- !u!1045 &1
EditorBuildSettings:
  m_ObjectHideFlags: 0
  serializedVersion: 2
  m_Scenes:
  - enabled: 0
    path: 
    guid: 00000000000000000000000000000000
  - enabled: 1
    path: Assets/Scenes/MainMenu.unity
    guid: 76f9ed4edf2e6f64fad8c7df311d6c8e
  - enabled: 1
    path: Assets/Scenes/Space.unity
    guid: 1c9ddcd7efc6922479ada7e24e80aed1
  m_configObjects: {}
